EESchema Schematic File Version 4
LIBS:Controller-cache
EELAYER 29 0
EELAYER END
$Descr A4 11693 8268
encoding utf-8
Sheet 1 1
Title ""
Date ""
Rev ""
Comp ""
Comment1 ""
Comment2 ""
Comment3 ""
Comment4 ""
$EndDescr
$Comp
L atmel:ATMEGA328-AU U2
U 1 1 5C95B969
P 6500 2275
F 0 "U2" H 6550 3642 50  0000 C CNN
F 1 "ATMEGA328-AU" H 6550 3551 50  0000 C CNN
F 2 "Housings_QFP:TQFP-32_7x7mm_Pitch0.8mm" H 6500 2275 50  0001 C CIN
F 3 "http://www.atmel.com/images/atmel-8271-8-bit-avr-microcontroller-atmega48a-48pa-88a-88pa-168a-168pa-328-328p_datasheet.pdf" H 6500 2275 50  0001 C CNN
	1    6500 2275
	1    0    0    -1  
$EndComp
$Comp
L atmel:AVR-ISP-6 J3
U 1 1 5C95FA25
P 10350 1475
F 0 "J3" H 10337 1840 50  0000 C CNN
F 1 "ISP" H 10337 1749 50  0000 C CNN
F 2 "Pin_Headers:Pin_Header_Straight_2x03_Pitch2.54mm" V 9830 1515 50  0001 C CNN
F 3 "" H 10325 1475 50  0001 C CNN
	1    10350 1475
	1    0    0    -1  
$EndComp
Text GLabel 7600 3175 2    50   Input ~ 0
TOUCH_PIN_CHARGE
Text GLabel 7600 3475 2    50   Input ~ 0
LIMIT_OPEN
Text GLabel 7600 1375 2    50   Input ~ 0
LIMIT_CLOSE
Text GLabel 7600 3275 2    50   Input ~ 0
STEPPER_DIR
Text GLabel 7600 3075 2    50   Input ~ 0
STEPPER_EN
Text GLabel 7600 3375 2    50   Input ~ 0
TOUCH_PIN_SENSE
Wire Wire Line
	7600 1175 7500 1175
Wire Wire Line
	7600 1275 7500 1275
Wire Wire Line
	7500 1375 7600 1375
Wire Wire Line
	7600 3175 7500 3175
Wire Wire Line
	7600 3275 7500 3275
Wire Wire Line
	7600 3375 7500 3375
$Comp
L power:VCC #PWR012
U 1 1 5C967886
P 5550 1050
F 0 "#PWR012" H 5550 900 50  0001 C CNN
F 1 "VCC" H 5567 1223 50  0000 C CNN
F 2 "" H 5550 1050 50  0001 C CNN
F 3 "" H 5550 1050 50  0001 C CNN
	1    5550 1050
	1    0    0    -1  
$EndComp
$Comp
L power:GND #PWR014
U 1 1 5C9678C7
P 5550 3575
F 0 "#PWR014" H 5550 3325 50  0001 C CNN
F 1 "GND" H 5555 3402 50  0000 C CNN
F 2 "" H 5550 3575 50  0001 C CNN
F 3 "" H 5550 3575 50  0001 C CNN
	1    5550 3575
	1    0    0    -1  
$EndComp
Wire Wire Line
	5600 3275 5550 3275
Wire Wire Line
	5550 3275 5550 3375
Wire Wire Line
	5600 3375 5550 3375
Connection ~ 5550 3375
Wire Wire Line
	5550 3375 5550 3475
Wire Wire Line
	5600 3475 5550 3475
Connection ~ 5550 3475
Wire Wire Line
	5550 3475 5550 3575
Wire Wire Line
	5550 1050 5550 1175
Wire Wire Line
	5550 1275 5600 1275
Wire Wire Line
	5600 1175 5550 1175
Connection ~ 5550 1175
Wire Wire Line
	5550 1175 5550 1275
Text GLabel 7600 2875 2    50   Input ~ 0
TXD
Text GLabel 7600 2775 2    50   Input ~ 0
RXD
Wire Wire Line
	7500 2775 7600 2775
Wire Wire Line
	7500 2875 7600 2875
Wire Wire Line
	5550 1275 5550 1475
Wire Wire Line
	5550 1475 5600 1475
Connection ~ 5550 1275
Text GLabel 7600 1575 2    50   Input ~ 0
MISO
Text GLabel 7600 1675 2    50   Input ~ 0
SCK
Text GLabel 7600 1475 2    50   Input ~ 0
MOSI
Text GLabel 9300 2625 2    50   Input ~ 0
RST
Wire Wire Line
	9300 2625 9175 2625
Wire Wire Line
	7600 1675 7500 1675
$Comp
L Device:Crystal_Small Y2
U 1 1 5C99B95C
P 8675 2075
F 0 "Y2" H 8875 2125 50  0000 C CNN
F 1 "12MHz" H 8375 2100 50  0000 C CNN
F 2 "Crystals:Crystal_SMD_HC49-SD" H 8675 2075 50  0001 R CNN
F 3 "~" H 8675 2075 50  0001 C CNN
	1    8675 2075
	-1   0    0    -1  
$EndComp
$Comp
L Device:C_Small C9
U 1 1 5C99B962
P 8825 2225
F 0 "C9" H 8675 2300 50  0000 L CNN
F 1 "22pF" H 8625 2150 50  0000 L CNN
F 2 "Capacitors_SMD:C_0603_HandSoldering" H 8825 2225 50  0001 C CNN
F 3 "~" H 8825 2225 50  0001 C CNN
	1    8825 2225
	-1   0    0    -1  
$EndComp
$Comp
L Device:C_Small C8
U 1 1 5C99B968
P 8525 2225
F 0 "C8" H 8550 2300 50  0000 L CNN
F 1 "22pF" H 8325 2150 50  0000 L CNN
F 2 "Capacitors_SMD:C_0603_HandSoldering" H 8525 2225 50  0001 C CNN
F 3 "~" H 8525 2225 50  0001 C CNN
	1    8525 2225
	-1   0    0    -1  
$EndComp
Wire Wire Line
	8825 1775 8825 1875
Wire Wire Line
	8525 1875 8525 2075
Wire Wire Line
	8775 2075 8825 2075
Connection ~ 8825 2075
Wire Wire Line
	8825 2075 8825 2125
Connection ~ 8525 2075
Wire Wire Line
	8525 2075 8525 2125
$Comp
L power:GND #PWR017
U 1 1 5C99B976
P 8825 2375
F 0 "#PWR017" H 8825 2125 50  0001 C CNN
F 1 "GND" H 8830 2202 50  0000 C CNN
F 2 "" H 8825 2375 50  0001 C CNN
F 3 "" H 8825 2375 50  0001 C CNN
	1    8825 2375
	-1   0    0    -1  
$EndComp
$Comp
L power:GND #PWR016
U 1 1 5C99B97C
P 8525 2375
F 0 "#PWR016" H 8525 2125 50  0001 C CNN
F 1 "GND" H 8530 2202 50  0000 C CNN
F 2 "" H 8525 2375 50  0001 C CNN
F 3 "" H 8525 2375 50  0001 C CNN
	1    8525 2375
	-1   0    0    -1  
$EndComp
Wire Wire Line
	8825 2325 8825 2375
Wire Wire Line
	8525 2325 8525 2375
Wire Wire Line
	7500 1875 8525 1875
$Comp
L Device:R R3
U 1 1 5C9BAB84
P 9175 2400
F 0 "R3" H 9245 2446 50  0000 L CNN
F 1 "10K" H 9245 2355 50  0000 L CNN
F 2 "Resistors_SMD:R_0603_HandSoldering" V 9105 2400 50  0001 C CNN
F 3 "~" H 9175 2400 50  0001 C CNN
	1    9175 2400
	1    0    0    -1  
$EndComp
$Comp
L power:VCC #PWR015
U 1 1 5C9BACEF
P 9175 2175
F 0 "#PWR015" H 9175 2025 50  0001 C CNN
F 1 "VCC" H 9192 2348 50  0000 C CNN
F 2 "" H 9175 2175 50  0001 C CNN
F 3 "" H 9175 2175 50  0001 C CNN
	1    9175 2175
	1    0    0    -1  
$EndComp
Wire Wire Line
	9175 2175 9175 2250
Wire Wire Line
	9175 2550 9175 2625
Connection ~ 9175 2625
Wire Wire Line
	9175 2625 7500 2625
$Comp
L power:VCC #PWR07
U 1 1 5C9C237B
P 10725 975
F 0 "#PWR07" H 10725 825 50  0001 C CNN
F 1 "VCC" H 10742 1148 50  0000 C CNN
F 2 "" H 10725 975 50  0001 C CNN
F 3 "" H 10725 975 50  0001 C CNN
	1    10725 975 
	1    0    0    -1  
$EndComp
Wire Wire Line
	10725 1375 10725 1325
Wire Wire Line
	10725 975  10725 1025
Wire Wire Line
	10725 1375 10450 1375
$Comp
L power:GND #PWR08
U 1 1 5C9C8C3A
P 10725 1675
F 0 "#PWR08" H 10725 1425 50  0001 C CNN
F 1 "GND" H 10730 1502 50  0000 C CNN
F 2 "" H 10725 1675 50  0001 C CNN
F 3 "" H 10725 1675 50  0001 C CNN
	1    10725 1675
	1    0    0    -1  
$EndComp
Wire Wire Line
	10450 1575 10725 1575
Wire Wire Line
	10725 1575 10725 1675
Text GLabel 9825 1575 0    50   Input ~ 0
RST
Wire Wire Line
	10200 1575 9825 1575
Text GLabel 9825 1375 0    50   Input ~ 0
MISO
Text GLabel 10800 1475 2    50   Input ~ 0
MOSI
Text GLabel 9825 1475 0    50   Input ~ 0
SCK
Wire Wire Line
	10800 1475 10450 1475
Wire Wire Line
	10200 1475 9825 1475
Wire Wire Line
	10200 1375 9825 1375
NoConn ~ 5600 2525
NoConn ~ 5600 2625
$Comp
L Device:C_Small C7
U 1 1 5C9E602F
P 5550 1925
F 0 "C7" H 5575 2000 50  0000 L CNN
F 1 "100nF" H 5575 1850 50  0000 L CNN
F 2 "Capacitors_SMD:C_0603_HandSoldering" H 5550 1925 50  0001 C CNN
F 3 "~" H 5550 1925 50  0001 C CNN
	1    5550 1925
	-1   0    0    -1  
$EndComp
$Comp
L power:GND #PWR013
U 1 1 5C9E6035
P 5550 2075
F 0 "#PWR013" H 5550 1825 50  0001 C CNN
F 1 "GND" H 5555 1902 50  0000 C CNN
F 2 "" H 5550 2075 50  0001 C CNN
F 3 "" H 5550 2075 50  0001 C CNN
	1    5550 2075
	-1   0    0    -1  
$EndComp
Wire Wire Line
	5550 2025 5550 2075
Wire Wire Line
	5550 1825 5550 1775
Wire Wire Line
	5550 1775 5600 1775
$Comp
L Device:C_Small C6
U 1 1 5CA0AAB2
P 5300 1450
F 0 "C6" H 5175 1525 50  0000 L CNN
F 1 "100nF" H 5050 1375 50  0000 L CNN
F 2 "Capacitors_SMD:C_0603_HandSoldering" H 5300 1450 50  0001 C CNN
F 3 "~" H 5300 1450 50  0001 C CNN
	1    5300 1450
	-1   0    0    -1  
$EndComp
$Comp
L power:GND #PWR011
U 1 1 5CA0AAB8
P 5300 1600
F 0 "#PWR011" H 5300 1350 50  0001 C CNN
F 1 "GND" H 5305 1427 50  0000 C CNN
F 2 "" H 5300 1600 50  0001 C CNN
F 3 "" H 5300 1600 50  0001 C CNN
	1    5300 1600
	-1   0    0    -1  
$EndComp
Wire Wire Line
	5300 1550 5300 1600
Wire Wire Line
	5550 1275 5300 1275
Wire Wire Line
	5300 1275 5300 1350
$Comp
L Device:R R4
U 1 1 5CA1BF94
P 8675 1875
F 0 "R4" V 8625 2075 50  0000 C CNN
F 1 "1M" V 8750 1875 50  0000 C CNN
F 2 "Resistors_SMD:R_0603_HandSoldering" V 8605 1875 50  0001 C CNN
F 3 "~" H 8675 1875 50  0001 C CNN
	1    8675 1875
	0    1    1    0   
$EndComp
Connection ~ 8525 1875
Connection ~ 8825 1875
Wire Wire Line
	8825 1875 8825 2075
Wire Wire Line
	8525 2075 8575 2075
Wire Wire Line
	7500 1775 8825 1775
$Comp
L Device:D_Schottky D2
U 1 1 5CA45309
P 10725 1175
F 0 "D2" V 10679 1254 50  0000 L CNN
F 1 "MBR0520LT1G" H 10375 1425 50  0000 L CNN
F 2 "Diodes_SMD:D_SOD-123" H 10725 1175 50  0001 C CNN
F 3 "~" H 10725 1175 50  0001 C CNN
	1    10725 1175
	0    1    1    0   
$EndComp
Text GLabel 7600 2975 2    50   Input ~ 0
STEPPER_STEP
Wire Wire Line
	7600 2975 7500 2975
$Comp
L suf_module:BIGTREETECH_TMC2209 U?
U 1 1 5E0BA094
P 2425 6650
F 0 "U?" H 2425 7215 50  0000 C CNN
F 1 "BIGTREETECH_TMC2209" H 2425 7124 50  0000 C CNN
F 2 "" H 2425 6625 60  0000 C CNN
F 3 "" H 2425 6625 60  0000 C CNN
	1    2425 6650
	1    0    0    -1  
$EndComp
Wire Wire Line
	7500 1575 7600 1575
Wire Wire Line
	7500 1475 7600 1475
Text GLabel 1925 6900 0    50   Input ~ 0
STEPPER_STEP
Wire Wire Line
	2025 6900 1925 6900
Text GLabel 1900 6300 0    50   Input ~ 0
STEPPER_EN
Text GLabel 1925 7000 0    50   Input ~ 0
STEPPER_DIR
Wire Wire Line
	1925 7000 2025 7000
Wire Wire Line
	1900 6300 2025 6300
$Comp
L suf_transformer:TRANSFORMER_ME.TRE-(10)-2 T?
U 1 1 5E0F3757
P 1525 2000
F 0 "T?" H 1525 2350 40  0000 C CNN
F 1 "230v/2x6V 10W" H 1425 2275 40  0000 C CNN
F 2 "" H 1525 2000 60  0000 C CNN
F 3 "" H 1525 2000 60  0000 C CNN
	1    1525 2000
	1    0    0    -1  
$EndComp
$Comp
L Device:D_Bridge_+-AA D?
U 1 1 5E0F4043
P 2150 1650
F 0 "D?" V 2325 1525 50  0000 R CNN
F 1 "D_Bridge_+-AA" V 2300 2450 50  0000 R CNN
F 2 "" H 2150 1650 50  0001 C CNN
F 3 "~" H 2150 1650 50  0001 C CNN
	1    2150 1650
	0    -1   -1   0   
$EndComp
$Comp
L Device:D_Bridge_+-AA D?
U 1 1 5E0F4EEC
P 2150 2350
F 0 "D?" V 2025 2175 50  0000 R CNN
F 1 "D_Bridge_+-AA" V 1950 3025 50  0000 R CNN
F 2 "" H 2150 2350 50  0001 C CNN
F 3 "~" H 2150 2350 50  0001 C CNN
	1    2150 2350
	0    -1   -1   0   
$EndComp
Wire Wire Line
	1700 1775 1700 1650
Wire Wire Line
	1700 1650 1850 1650
Wire Wire Line
	1700 2225 1700 2350
Wire Wire Line
	1700 2350 1850 2350
Wire Wire Line
	1700 2025 2450 2025
Wire Wire Line
	2450 2025 2450 2350
Wire Wire Line
	1700 1975 2450 1975
Wire Wire Line
	2450 1975 2450 1650
Wire Wire Line
	2150 1950 2150 2000
$Comp
L regul:LM7805_TO220 U?
U 1 1 5E11C9D6
P 2950 950
F 0 "U?" H 2800 1075 50  0000 C CNN
F 1 "L78M12" H 3075 1075 50  0000 C CNN
F 2 "TO_SOT_Packages_THT:TO-220_Vertical" H 2950 1175 50  0001 C CIN
F 3 "http://www.fairchildsemi.com/ds/LM/LM7805.pdf" H 2950 900 50  0001 C CNN
	1    2950 950 
	1    0    0    -1  
$EndComp
$Comp
L regul:LM7805_TO220 U?
U 1 1 5E11E863
P 2950 2000
F 0 "U?" H 2800 2125 50  0000 C CNN
F 1 "LM7805_TO220" H 2950 1400 50  0000 C CNN
F 2 "TO_SOT_Packages_THT:TO-220_Vertical" H 2950 2225 50  0001 C CIN
F 3 "http://www.fairchildsemi.com/ds/LM/LM7805.pdf" H 2950 1950 50  0001 C CNN
	1    2950 2000
	1    0    0    -1  
$EndComp
$Comp
L Device:CP C?
U 1 1 5E12022C
P 2600 2175
F 0 "C?" H 2718 2221 50  0000 L CNN
F 1 "CP" H 2718 2130 50  0000 L CNN
F 2 "" H 2638 2025 50  0001 C CNN
F 3 "~" H 2600 2175 50  0001 C CNN
	1    2600 2175
	1    0    0    -1  
$EndComp
$Comp
L Device:CP C?
U 1 1 5E120FFC
P 3275 1125
F 0 "C?" H 3393 1171 50  0000 L CNN
F 1 "CP" H 3393 1080 50  0000 L CNN
F 2 "" H 3313 975 50  0001 C CNN
F 3 "~" H 3275 1125 50  0001 C CNN
	1    3275 1125
	1    0    0    -1  
$EndComp
$Comp
L Device:CP C?
U 1 1 5E122F2F
P 2600 1125
F 0 "C?" H 2718 1171 50  0000 L CNN
F 1 "CP" H 2718 1080 50  0000 L CNN
F 2 "" H 2638 975 50  0001 C CNN
F 3 "~" H 2600 1125 50  0001 C CNN
	1    2600 1125
	1    0    0    -1  
$EndComp
Wire Wire Line
	2150 950  2600 950 
Wire Wire Line
	2150 2000 2600 2000
Connection ~ 2150 2000
Wire Wire Line
	2150 2000 2150 2050
Wire Wire Line
	2150 2650 2150 2725
Wire Wire Line
	2600 975  2600 950 
Connection ~ 2600 950 
Wire Wire Line
	2600 950  2650 950 
$Comp
L power:GND #PWR?
U 1 1 5E14C604
P 2600 1300
F 0 "#PWR?" H 2600 1050 50  0001 C CNN
F 1 "GND" H 2600 1150 50  0000 C CNN
F 2 "" H 2600 1300 50  0001 C CNN
F 3 "" H 2600 1300 50  0001 C CNN
	1    2600 1300
	1    0    0    -1  
$EndComp
$Comp
L power:GND #PWR?
U 1 1 5E14CC76
P 2950 1300
F 0 "#PWR?" H 2950 1050 50  0001 C CNN
F 1 "GND" H 2950 1150 50  0000 C CNN
F 2 "" H 2950 1300 50  0001 C CNN
F 3 "" H 2950 1300 50  0001 C CNN
	1    2950 1300
	1    0    0    -1  
$EndComp
$Comp
L power:GND #PWR?
U 1 1 5E154998
P 2600 2350
F 0 "#PWR?" H 2600 2100 50  0001 C CNN
F 1 "GND" H 2600 2200 50  0000 C CNN
F 2 "" H 2600 2350 50  0001 C CNN
F 3 "" H 2600 2350 50  0001 C CNN
	1    2600 2350
	1    0    0    -1  
$EndComp
$Comp
L power:GND #PWR?
U 1 1 5E155244
P 2150 2725
F 0 "#PWR?" H 2150 2475 50  0001 C CNN
F 1 "GND" H 2150 2575 50  0000 C CNN
F 2 "" H 2150 2725 50  0001 C CNN
F 3 "" H 2150 2725 50  0001 C CNN
	1    2150 2725
	1    0    0    -1  
$EndComp
$Comp
L Device:CP C?
U 1 1 5E155ABD
P 3275 2175
F 0 "C?" H 3393 2221 50  0000 L CNN
F 1 "CP" H 3393 2130 50  0000 L CNN
F 2 "" H 3313 2025 50  0001 C CNN
F 3 "~" H 3275 2175 50  0001 C CNN
	1    3275 2175
	1    0    0    -1  
$EndComp
$Comp
L power:GND #PWR?
U 1 1 5E1646C0
P 3275 1300
F 0 "#PWR?" H 3275 1050 50  0001 C CNN
F 1 "GND" H 3275 1150 50  0000 C CNN
F 2 "" H 3275 1300 50  0001 C CNN
F 3 "" H 3275 1300 50  0001 C CNN
	1    3275 1300
	1    0    0    -1  
$EndComp
$Comp
L power:GND #PWR?
U 1 1 5E164E9F
P 2950 2350
F 0 "#PWR?" H 2950 2100 50  0001 C CNN
F 1 "GND" H 2950 2200 50  0000 C CNN
F 2 "" H 2950 2350 50  0001 C CNN
F 3 "" H 2950 2350 50  0001 C CNN
	1    2950 2350
	1    0    0    -1  
$EndComp
$Comp
L power:GND #PWR?
U 1 1 5E16571E
P 3275 2350
F 0 "#PWR?" H 3275 2100 50  0001 C CNN
F 1 "GND" H 3275 2200 50  0000 C CNN
F 2 "" H 3275 2350 50  0001 C CNN
F 3 "" H 3275 2350 50  0001 C CNN
	1    3275 2350
	1    0    0    -1  
$EndComp
$Comp
L power:VCC #PWR?
U 1 1 5E166BA4
P 3925 1975
F 0 "#PWR?" H 3925 1825 50  0001 C CNN
F 1 "VCC" H 3942 2148 50  0000 C CNN
F 2 "" H 3925 1975 50  0001 C CNN
F 3 "" H 3925 1975 50  0001 C CNN
	1    3925 1975
	1    0    0    -1  
$EndComp
Wire Wire Line
	3250 2000 3275 2000
Wire Wire Line
	3925 2000 3925 1975
Wire Wire Line
	3275 2025 3275 2000
Connection ~ 3275 2000
Wire Wire Line
	3275 2000 3575 2000
Text GLabel 3925 950  2    50   Input ~ 0
VMOT
Wire Wire Line
	3250 950  3275 950 
Wire Wire Line
	3275 975  3275 950 
Connection ~ 3275 950 
Wire Wire Line
	3275 950  3575 950 
Text GLabel 3750 6300 2    50   Input ~ 0
VMOT
Wire Wire Line
	2825 6300 3675 6300
$Comp
L conn:Conn_01x04 J?
U 1 1 5E172EE7
P 3150 6600
F 0 "J?" H 3100 6800 50  0000 L CNN
F 1 "Stepper" H 3225 6700 50  0000 L CNN
F 2 "Connectors_JST:JST_EH_B04B-EH-A_04x2.50mm_Straight" H 3150 6600 50  0001 C CNN
F 3 "~" H 3150 6600 50  0001 C CNN
	1    3150 6600
	1    0    0    -1  
$EndComp
Wire Wire Line
	2825 6500 2950 6500
Wire Wire Line
	2825 6600 2950 6600
Wire Wire Line
	2825 6700 2950 6700
Wire Wire Line
	2825 6800 2950 6800
$Comp
L power:VCC #PWR?
U 1 1 5E17DF32
P 3325 6850
F 0 "#PWR?" H 3325 6700 50  0001 C CNN
F 1 "VCC" H 3342 7023 50  0000 C CNN
F 2 "" H 3325 6850 50  0001 C CNN
F 3 "" H 3325 6850 50  0001 C CNN
	1    3325 6850
	1    0    0    -1  
$EndComp
Wire Wire Line
	2825 6900 3325 6900
Wire Wire Line
	3325 6900 3325 6850
Wire Wire Line
	2825 7000 2875 7000
Wire Wire Line
	2875 7000 2875 6400
Wire Wire Line
	2875 6400 2825 6400
$Comp
L power:GND #PWR?
U 1 1 5E183F1C
P 2875 7050
F 0 "#PWR?" H 2875 6800 50  0001 C CNN
F 1 "GND" H 2880 6877 50  0000 C CNN
F 2 "" H 2875 7050 50  0001 C CNN
F 3 "" H 2875 7050 50  0001 C CNN
	1    2875 7050
	1    0    0    -1  
$EndComp
Wire Wire Line
	2875 7000 2875 7050
Connection ~ 2875 7000
Wire Wire Line
	2600 1275 2600 1300
Wire Wire Line
	2950 1250 2950 1300
Wire Wire Line
	3275 1275 3275 1300
Wire Wire Line
	2600 2025 2600 2000
Connection ~ 2600 2000
Wire Wire Line
	2600 2000 2650 2000
Wire Wire Line
	2600 2325 2600 2350
Wire Wire Line
	2950 2300 2950 2350
Wire Wire Line
	3275 2325 3275 2350
$Comp
L conn:Conn_01x03 J?
U 1 1 5E19D956
P 700 2000
F 0 "J?" H 618 2317 50  0000 C CNN
F 1 "MAINS" H 618 2226 50  0000 C CNN
F 2 "suf_connector_ncw:CONN_NCW396-03S" H 700 2000 50  0001 C CNN
F 3 "~" H 700 2000 50  0001 C CNN
	1    700  2000
	-1   0    0    -1  
$EndComp
$Comp
L Device:Fuse F?
U 1 1 5E1A0C45
P 1125 1900
F 0 "F?" V 928 1900 50  0000 C CNN
F 1 "Fuse" V 1019 1900 50  0000 C CNN
F 2 "Fuse_Holders_and_Fuses:Fuseholder5x20_horiz_SemiClosed_Casing10x25mm" V 1055 1900 50  0001 C CNN
F 3 "~" H 1125 1900 50  0001 C CNN
	1    1125 1900
	0    1    1    0   
$EndComp
$Comp
L power:GND #PWR?
U 1 1 5E1A1D8E
P 1100 2175
F 0 "#PWR?" H 1100 1925 50  0001 C CNN
F 1 "GND" H 1100 2025 50  0000 C CNN
F 2 "" H 1100 2175 50  0001 C CNN
F 3 "" H 1100 2175 50  0001 C CNN
	1    1100 2175
	1    0    0    -1  
$EndComp
Wire Wire Line
	900  2000 1100 2000
Wire Wire Line
	1100 2000 1100 2175
Wire Wire Line
	900  1900 975  1900
Wire Wire Line
	1275 1900 1350 1900
Wire Wire Line
	900  2100 1350 2100
$Comp
L Device:Jumper_NC_Small JP?
U 1 1 5E1B0BAB
P 1150 6250
F 0 "JP?" V 1050 6275 50  0000 L CNN
F 1 "MS1" V 1200 6300 50  0000 L CNN
F 2 "" H 1150 6250 50  0001 C CNN
F 3 "~" H 1150 6250 50  0001 C CNN
	1    1150 6250
	0    1    1    0   
$EndComp
$Comp
L Device:Jumper_NC_Small JP?
U 1 1 5E1B2A5F
P 1050 6250
F 0 "JP?" V 950 6100 50  0000 L CNN
F 1 "MS2" V 1100 6050 50  0000 L CNN
F 2 "" H 1050 6250 50  0001 C CNN
F 3 "~" H 1050 6250 50  0001 C CNN
	1    1050 6250
	0    1    1    0   
$EndComp
$Comp
L Device:R R?
U 1 1 5E1B6A9C
P 1050 7025
F 0 "R?" H 875 7075 50  0000 L CNN
F 1 "R" H 900 6975 50  0000 L CNN
F 2 "Resistors_SMD:R_0603_HandSoldering" V 980 7025 50  0001 C CNN
F 3 "~" H 1050 7025 50  0001 C CNN
	1    1050 7025
	1    0    0    -1  
$EndComp
$Comp
L Device:R R?
U 1 1 5E1B8082
P 1150 7025
F 0 "R?" H 1220 7071 50  0000 L CNN
F 1 "R" H 1220 6980 50  0000 L CNN
F 2 "Resistors_SMD:R_0603_HandSoldering" V 1080 7025 50  0001 C CNN
F 3 "~" H 1150 7025 50  0001 C CNN
	1    1150 7025
	1    0    0    -1  
$EndComp
$Comp
L power:GND #PWR?
U 1 1 5E1B9401
P 1100 7250
F 0 "#PWR?" H 1100 7000 50  0001 C CNN
F 1 "GND" H 1105 7077 50  0000 C CNN
F 2 "" H 1100 7250 50  0001 C CNN
F 3 "" H 1100 7250 50  0001 C CNN
	1    1100 7250
	1    0    0    -1  
$EndComp
Wire Wire Line
	1050 7175 1050 7225
Wire Wire Line
	1050 7225 1100 7225
Wire Wire Line
	1150 7225 1150 7175
Wire Wire Line
	1100 7250 1100 7225
Connection ~ 1100 7225
Wire Wire Line
	1100 7225 1150 7225
Wire Wire Line
	1050 6350 1050 6500
Wire Wire Line
	1150 6350 1150 6400
Wire Wire Line
	2025 6400 1150 6400
Connection ~ 1150 6400
Wire Wire Line
	1150 6400 1150 6875
Wire Wire Line
	2025 6500 1050 6500
Connection ~ 1050 6500
Wire Wire Line
	1050 6500 1050 6875
$Comp
L power:VCC #PWR?
U 1 1 5E1D1B59
P 1100 6075
F 0 "#PWR?" H 1100 5925 50  0001 C CNN
F 1 "VCC" H 1117 6248 50  0000 C CNN
F 2 "" H 1100 6075 50  0001 C CNN
F 3 "" H 1100 6075 50  0001 C CNN
	1    1100 6075
	1    0    0    -1  
$EndComp
Wire Wire Line
	1050 6150 1050 6100
Wire Wire Line
	1050 6100 1100 6100
Wire Wire Line
	1150 6100 1150 6150
Wire Wire Line
	1100 6075 1100 6100
Connection ~ 1100 6100
Wire Wire Line
	1100 6100 1150 6100
NoConn ~ 2025 6800
NoConn ~ 2025 6700
Wire Wire Line
	2150 950  2150 1350
$Comp
L Device:D D?
U 1 1 5E20504E
P 2950 675
F 0 "D?" H 2950 891 50  0000 C CNN
F 1 "D" H 2950 800 50  0000 C CNN
F 2 "" H 2950 675 50  0001 C CNN
F 3 "~" H 2950 675 50  0001 C CNN
	1    2950 675 
	1    0    0    -1  
$EndComp
$Comp
L Device:D D?
U 1 1 5E205D1A
P 2950 1775
F 0 "D?" H 2950 1991 50  0000 C CNN
F 1 "D" H 2950 1900 50  0000 C CNN
F 2 "" H 2950 1775 50  0001 C CNN
F 3 "~" H 2950 1775 50  0001 C CNN
	1    2950 1775
	1    0    0    -1  
$EndComp
$Comp
L Device:D_Schottky D?
U 1 1 5E206A17
P 3575 1475
F 0 "D?" V 3529 1554 50  0000 L CNN
F 1 "D_Schottky" V 3620 1554 50  0000 L CNN
F 2 "" H 3575 1475 50  0001 C CNN
F 3 "~" H 3575 1475 50  0001 C CNN
	1    3575 1475
	0    1    1    0   
$EndComp
Wire Wire Line
	2600 950  2600 675 
Wire Wire Line
	2600 675  2800 675 
Wire Wire Line
	3100 675  3275 675 
Wire Wire Line
	3275 675  3275 950 
Wire Wire Line
	2600 1975 2600 1775
Wire Wire Line
	2600 1775 2800 1775
Wire Wire Line
	3100 1775 3275 1775
Wire Wire Line
	3275 1775 3275 2000
Wire Wire Line
	3575 1325 3575 950 
Connection ~ 3575 950 
Wire Wire Line
	3575 950  3925 950 
Wire Wire Line
	3575 1625 3575 2000
Connection ~ 3575 2000
Wire Wire Line
	3575 2000 3925 2000
Wire Wire Line
	7600 3475 7500 3475
Wire Wire Line
	7600 3075 7500 3075
Text GLabel 7600 1175 2    50   Input ~ 0
RXD1
Text GLabel 7600 1275 2    50   Input ~ 0
TXD1
$Comp
L Device:R R?
U 1 1 5E24CA40
P 1700 6600
F 0 "R?" V 1850 6500 50  0000 C CNN
F 1 "1K" V 1850 6700 50  0000 C CNN
F 2 "Resistors_SMD:R_0603_HandSoldering" V 1630 6600 50  0001 C CNN
F 3 "~" H 1700 6600 50  0001 C CNN
	1    1700 6600
	0    1    1    0   
$EndComp
Text GLabel 1475 6600 0    50   Input ~ 0
TXD1
Text GLabel 1475 6700 0    50   Input ~ 0
RXD1
Wire Wire Line
	1475 6600 1550 6600
Wire Wire Line
	1850 6600 1900 6600
Wire Wire Line
	1475 6700 1900 6700
Wire Wire Line
	1900 6700 1900 6600
Connection ~ 1900 6600
Wire Wire Line
	1900 6600 2025 6600
$Comp
L conn:Conn_01x03 J?
U 1 1 5E261B2D
P 1200 3875
F 0 "J?" H 1118 4192 50  0000 C CNN
F 1 "ESTOP_CLOSE" H 1275 4100 50  0000 C CNN
F 2 "Connectors_JST:JST_EH_B03B-EH-A_03x2.50mm_Straight" H 1200 3875 50  0001 C CNN
F 3 "~" H 1200 3875 50  0001 C CNN
	1    1200 3875
	-1   0    0    -1  
$EndComp
$Comp
L power:VCC #PWR?
U 1 1 5E262913
P 1525 3700
F 0 "#PWR?" H 1525 3550 50  0001 C CNN
F 1 "VCC" H 1542 3873 50  0000 C CNN
F 2 "" H 1525 3700 50  0001 C CNN
F 3 "" H 1525 3700 50  0001 C CNN
	1    1525 3700
	1    0    0    -1  
$EndComp
$Comp
L power:GND #PWR?
U 1 1 5E263382
P 1525 4050
F 0 "#PWR?" H 1525 3800 50  0001 C CNN
F 1 "GND" H 1530 3877 50  0000 C CNN
F 2 "" H 1525 4050 50  0001 C CNN
F 3 "" H 1525 4050 50  0001 C CNN
	1    1525 4050
	-1   0    0    -1  
$EndComp
Wire Wire Line
	1400 3775 1525 3775
Wire Wire Line
	1525 3775 1525 3700
Wire Wire Line
	1400 3975 1525 3975
Wire Wire Line
	1525 3975 1525 4050
Text GLabel 1575 3875 2    50   Input ~ 0
LIMIT_CLOSE
Wire Wire Line
	1400 3875 1575 3875
$Comp
L conn:Conn_01x03 J?
U 1 1 5E27897A
P 1175 4725
F 0 "J?" H 1093 5042 50  0000 C CNN
F 1 "ESTOP_OPEN" H 1250 4950 50  0000 C CNN
F 2 "Connectors_JST:JST_EH_B03B-EH-A_03x2.50mm_Straight" H 1175 4725 50  0001 C CNN
F 3 "~" H 1175 4725 50  0001 C CNN
	1    1175 4725
	-1   0    0    -1  
$EndComp
$Comp
L power:VCC #PWR?
U 1 1 5E278984
P 1500 4550
F 0 "#PWR?" H 1500 4400 50  0001 C CNN
F 1 "VCC" H 1517 4723 50  0000 C CNN
F 2 "" H 1500 4550 50  0001 C CNN
F 3 "" H 1500 4550 50  0001 C CNN
	1    1500 4550
	1    0    0    -1  
$EndComp
$Comp
L power:GND #PWR?
U 1 1 5E27898E
P 1500 4900
F 0 "#PWR?" H 1500 4650 50  0001 C CNN
F 1 "GND" H 1505 4727 50  0000 C CNN
F 2 "" H 1500 4900 50  0001 C CNN
F 3 "" H 1500 4900 50  0001 C CNN
	1    1500 4900
	-1   0    0    -1  
$EndComp
Wire Wire Line
	1375 4625 1500 4625
Wire Wire Line
	1500 4625 1500 4550
Wire Wire Line
	1375 4825 1500 4825
Wire Wire Line
	1500 4825 1500 4900
Text GLabel 1550 4725 2    50   Input ~ 0
LIMIT_OPEN
Wire Wire Line
	1375 4725 1550 4725
$Comp
L conn:Conn_01x01 J?
U 1 1 5E280CE8
P 2750 3850
F 0 "J?" H 2668 3625 50  0000 C CNN
F 1 "TOUCH" H 2668 3716 50  0000 C CNN
F 2 "Pin_Headers:Pin_Header_Straight_1x01_Pitch2.54mm" H 2750 3850 50  0001 C CNN
F 3 "~" H 2750 3850 50  0001 C CNN
	1    2750 3850
	-1   0    0    1   
$EndComp
$Comp
L Device:R R?
U 1 1 5E282034
P 3200 3850
F 0 "R?" V 3100 3725 50  0000 C CNN
F 1 "1M" V 3100 3950 50  0000 C CNN
F 2 "Resistors_SMD:R_0603_HandSoldering" V 3130 3850 50  0001 C CNN
F 3 "~" H 3200 3850 50  0001 C CNN
	1    3200 3850
	0    1    1    0   
$EndComp
Text GLabel 3450 3850 2    50   Input ~ 0
TOUCH_PIN_CHARGE
Text GLabel 3450 3975 2    50   Input ~ 0
TOUCH_PIN_SENSE
Wire Wire Line
	2950 3850 3000 3850
Wire Wire Line
	3350 3850 3450 3850
Wire Wire Line
	3450 3975 3000 3975
Wire Wire Line
	3000 3975 3000 3850
Connection ~ 3000 3850
Wire Wire Line
	3000 3850 3050 3850
$Comp
L conn:Conn_01x04 J?
U 1 1 5E2B109D
P 9975 4775
F 0 "J?" H 9893 5092 50  0000 C CNN
F 1 "Grove" H 9893 5001 50  0000 C CNN
F 2 "Connectors_JST:JST_PH_B4B-PH-K_04x2.00mm_Straight" H 9975 4775 50  0001 C CNN
F 3 "~" H 9975 4775 50  0001 C CNN
	1    9975 4775
	-1   0    0    -1  
$EndComp
Text GLabel 7625 2025 2    50   Input ~ 0
PC0
Text GLabel 7625 2125 2    50   Input ~ 0
PC1
Text GLabel 7625 2225 2    50   Input ~ 0
PC2
Text GLabel 7625 2325 2    50   Input ~ 0
PC3
Text GLabel 7625 2425 2    50   Input ~ 0
PC4
Text GLabel 7625 2525 2    50   Input ~ 0
PC5
Text GLabel 8200 2375 2    50   Input ~ 0
SDA
Text GLabel 8200 2475 2    50   Input ~ 0
SCL
Wire Wire Line
	7500 2025 7625 2025
Wire Wire Line
	7500 2125 7625 2125
Wire Wire Line
	7500 2225 7625 2225
Wire Wire Line
	7500 2325 7625 2325
Wire Wire Line
	7500 2425 7550 2425
Wire Wire Line
	7500 2525 7550 2525
Wire Wire Line
	8200 2375 8125 2375
Wire Wire Line
	7550 2375 7550 2425
Connection ~ 7550 2425
Wire Wire Line
	7550 2425 7625 2425
Wire Wire Line
	8200 2475 7550 2475
Wire Wire Line
	7550 2475 7550 2525
Connection ~ 7550 2525
Wire Wire Line
	7550 2525 7625 2525
Text GLabel 10275 4675 2    50   Input ~ 0
SCL
Text GLabel 10275 4775 2    50   Input ~ 0
SDA
$Comp
L power:GND #PWR?
U 1 1 5E33795B
P 10275 5025
F 0 "#PWR?" H 10275 4775 50  0001 C CNN
F 1 "GND" H 10280 4852 50  0000 C CNN
F 2 "" H 10275 5025 50  0001 C CNN
F 3 "" H 10275 5025 50  0001 C CNN
	1    10275 5025
	-1   0    0    -1  
$EndComp
$Comp
L power:VCC #PWR?
U 1 1 5E3383D0
P 10600 4775
F 0 "#PWR?" H 10600 4625 50  0001 C CNN
F 1 "VCC" H 10617 4948 50  0000 C CNN
F 2 "" H 10600 4775 50  0001 C CNN
F 3 "" H 10600 4775 50  0001 C CNN
	1    10600 4775
	1    0    0    -1  
$EndComp
Wire Wire Line
	10175 4975 10275 4975
Wire Wire Line
	10275 4975 10275 5025
Wire Wire Line
	10175 4875 10600 4875
Wire Wire Line
	10600 4875 10600 4775
Wire Wire Line
	10275 4775 10175 4775
Wire Wire Line
	10275 4675 10175 4675
$Comp
L conn:Conn_01x06 J?
U 1 1 5E3661B4
P 7450 4950
F 0 "J?" H 7368 5367 50  0000 C CNN
F 1 "GND" H 7368 5276 50  0000 C CNN
F 2 "Pin_Headers:Pin_Header_Straight_1x06_Pitch2.54mm" H 7450 4950 50  0001 C CNN
F 3 "~" H 7450 4950 50  0001 C CNN
	1    7450 4950
	-1   0    0    -1  
$EndComp
$Comp
L conn:Conn_01x06 J?
U 1 1 5E36FAD0
P 7975 4950
F 0 "J?" H 7893 5367 50  0000 C CNN
F 1 "SIGNAL" H 7893 5276 50  0000 C CNN
F 2 "Pin_Headers:Pin_Header_Straight_1x06_Pitch2.54mm" H 7975 4950 50  0001 C CNN
F 3 "~" H 7975 4950 50  0001 C CNN
	1    7975 4950
	-1   0    0    -1  
$EndComp
$Comp
L conn:Conn_01x06 J?
U 1 1 5E370F5D
P 8600 4950
F 0 "J?" H 8518 5367 50  0000 C CNN
F 1 "VCC" H 8518 5276 50  0000 C CNN
F 2 "Pin_Headers:Pin_Header_Straight_1x06_Pitch2.54mm" H 8600 4950 50  0001 C CNN
F 3 "~" H 8600 4950 50  0001 C CNN
	1    8600 4950
	-1   0    0    -1  
$EndComp
Text GLabel 8250 4750 2    50   Input ~ 0
PC0
Text GLabel 8250 4850 2    50   Input ~ 0
PC1
Text GLabel 8250 4950 2    50   Input ~ 0
PC2
Text GLabel 8250 5050 2    50   Input ~ 0
PC3
Text GLabel 8250 5150 2    50   Input ~ 0
PC4
Text GLabel 8250 5250 2    50   Input ~ 0
PC5
$Comp
L power:VCC #PWR?
U 1 1 5E3A774D
P 8900 4650
F 0 "#PWR?" H 8900 4500 50  0001 C CNN
F 1 "VCC" H 8917 4823 50  0000 C CNN
F 2 "" H 8900 4650 50  0001 C CNN
F 3 "" H 8900 4650 50  0001 C CNN
	1    8900 4650
	1    0    0    -1  
$EndComp
$Comp
L power:GND #PWR?
U 1 1 5E3A8151
P 7700 5350
F 0 "#PWR?" H 7700 5100 50  0001 C CNN
F 1 "GND" H 7705 5177 50  0000 C CNN
F 2 "" H 7700 5350 50  0001 C CNN
F 3 "" H 7700 5350 50  0001 C CNN
	1    7700 5350
	-1   0    0    -1  
$EndComp
Wire Wire Line
	7650 4750 7700 4750
Wire Wire Line
	7700 4750 7700 4850
Wire Wire Line
	7650 4850 7700 4850
Connection ~ 7700 4850
Wire Wire Line
	7700 4850 7700 4950
Wire Wire Line
	7650 4950 7700 4950
Connection ~ 7700 4950
Wire Wire Line
	7700 4950 7700 5050
Wire Wire Line
	7650 5050 7700 5050
Connection ~ 7700 5050
Wire Wire Line
	7700 5050 7700 5150
Wire Wire Line
	7650 5150 7700 5150
Connection ~ 7700 5150
Wire Wire Line
	7700 5150 7700 5250
Wire Wire Line
	7650 5250 7700 5250
Connection ~ 7700 5250
Wire Wire Line
	7700 5250 7700 5350
Wire Wire Line
	8175 4750 8250 4750
Wire Wire Line
	8250 4850 8175 4850
Wire Wire Line
	8250 4950 8175 4950
Wire Wire Line
	8250 5050 8175 5050
Wire Wire Line
	8250 5150 8175 5150
Wire Wire Line
	8250 5250 8175 5250
Wire Wire Line
	8900 4650 8900 4750
Wire Wire Line
	8900 5250 8800 5250
Wire Wire Line
	8800 5150 8900 5150
Connection ~ 8900 5150
Wire Wire Line
	8900 5150 8900 5250
Wire Wire Line
	8800 5050 8900 5050
Connection ~ 8900 5050
Wire Wire Line
	8900 5050 8900 5150
Wire Wire Line
	8800 4950 8900 4950
Connection ~ 8900 4950
Wire Wire Line
	8900 4950 8900 5050
Wire Wire Line
	8800 4850 8900 4850
Connection ~ 8900 4850
Wire Wire Line
	8900 4850 8900 4950
Wire Wire Line
	8800 4750 8900 4750
Connection ~ 8900 4750
Wire Wire Line
	8900 4750 8900 4850
$Comp
L Device:R R?
U 1 1 5E48B047
P 7950 2150
F 0 "R?" V 8025 2275 50  0000 C CNN
F 1 "4,7K" V 8025 2050 50  0000 C CNN
F 2 "Resistors_SMD:R_0603_HandSoldering" V 7880 2150 50  0001 C CNN
F 3 "~" H 7950 2150 50  0001 C CNN
	1    7950 2150
	-1   0    0    1   
$EndComp
$Comp
L Device:R R?
U 1 1 5E48C8B2
P 8125 2150
F 0 "R?" V 8200 2275 50  0000 C CNN
F 1 "4,7K" V 8200 2050 50  0000 C CNN
F 2 "Resistors_SMD:R_0603_HandSoldering" V 8055 2150 50  0001 C CNN
F 3 "~" H 8125 2150 50  0001 C CNN
	1    8125 2150
	-1   0    0    1   
$EndComp
Wire Wire Line
	7950 2300 7950 2375
Connection ~ 7950 2375
Wire Wire Line
	7950 2375 7550 2375
Wire Wire Line
	8125 2300 8125 2375
Connection ~ 8125 2375
Wire Wire Line
	8125 2375 7950 2375
$Comp
L power:VCC #PWR?
U 1 1 5E4B1EAE
P 8125 1700
F 0 "#PWR?" H 8125 1550 50  0001 C CNN
F 1 "VCC" H 8142 1873 50  0000 C CNN
F 2 "" H 8125 1700 50  0001 C CNN
F 3 "" H 8125 1700 50  0001 C CNN
	1    8125 1700
	1    0    0    -1  
$EndComp
Wire Wire Line
	8125 2000 8125 1925
Wire Wire Line
	7950 2000 7950 1925
Wire Wire Line
	7950 1925 8125 1925
Connection ~ 8125 1925
Wire Wire Line
	8125 1925 8125 1700
$Comp
L Device:C_Small C?
U 1 1 5E4D7612
P 3325 7075
F 0 "C?" H 3350 7150 50  0000 L CNN
F 1 "100nF" H 3350 7000 50  0000 L CNN
F 2 "Capacitors_SMD:C_0603_HandSoldering" H 3325 7075 50  0001 C CNN
F 3 "~" H 3325 7075 50  0001 C CNN
	1    3325 7075
	-1   0    0    -1  
$EndComp
$Comp
L power:GND #PWR?
U 1 1 5E4D761C
P 3325 7225
F 0 "#PWR?" H 3325 6975 50  0001 C CNN
F 1 "GND" H 3330 7052 50  0000 C CNN
F 2 "" H 3325 7225 50  0001 C CNN
F 3 "" H 3325 7225 50  0001 C CNN
	1    3325 7225
	-1   0    0    -1  
$EndComp
Wire Wire Line
	3325 7175 3325 7225
Wire Wire Line
	3325 6900 3325 6975
Connection ~ 3325 6900
$Comp
L Device:CP C?
U 1 1 5E4F1A12
P 3675 6550
F 0 "C?" H 3793 6596 50  0000 L CNN
F 1 "CP" H 3793 6505 50  0000 L CNN
F 2 "" H 3713 6400 50  0001 C CNN
F 3 "~" H 3675 6550 50  0001 C CNN
	1    3675 6550
	1    0    0    -1  
$EndComp
$Comp
L power:GND #PWR?
U 1 1 5E4F1A1C
P 3675 6725
F 0 "#PWR?" H 3675 6475 50  0001 C CNN
F 1 "GND" H 3675 6575 50  0000 C CNN
F 2 "" H 3675 6725 50  0001 C CNN
F 3 "" H 3675 6725 50  0001 C CNN
	1    3675 6725
	1    0    0    -1  
$EndComp
Wire Wire Line
	3675 6700 3675 6725
Wire Wire Line
	3675 6400 3675 6300
Connection ~ 3675 6300
Wire Wire Line
	3675 6300 3750 6300
$Comp
L conn:Conn_01x02 J?
U 1 1 5E50C3E7
P 4150 2425
F 0 "J?" H 4230 2417 50  0000 L CNN
F 1 "PWR LED" H 4230 2326 50  0000 L CNN
F 2 "" H 4150 2425 50  0001 C CNN
F 3 "~" H 4150 2425 50  0001 C CNN
	1    4150 2425
	1    0    0    -1  
$EndComp
$Comp
L Device:R R?
U 1 1 5E50D8C6
P 3925 2200
F 0 "R?" H 3995 2246 50  0000 L CNN
F 1 "510" H 3995 2155 50  0000 L CNN
F 2 "Resistors_SMD:R_0603_HandSoldering" V 3855 2200 50  0001 C CNN
F 3 "~" H 3925 2200 50  0001 C CNN
	1    3925 2200
	1    0    0    -1  
$EndComp
Wire Wire Line
	3925 2000 3925 2050
Connection ~ 3925 2000
$Comp
L power:GND #PWR?
U 1 1 5E51B723
P 3925 2600
F 0 "#PWR?" H 3925 2350 50  0001 C CNN
F 1 "GND" H 3930 2427 50  0000 C CNN
F 2 "" H 3925 2600 50  0001 C CNN
F 3 "" H 3925 2600 50  0001 C CNN
	1    3925 2600
	1    0    0    -1  
$EndComp
Wire Wire Line
	3950 2525 3925 2525
Wire Wire Line
	3925 2525 3925 2600
Wire Wire Line
	3925 2350 3925 2425
Wire Wire Line
	3925 2425 3950 2425
Wire Notes Line
	4750 575  4750 7725
Wire Notes Line
	500  3050 4750 3050
Wire Notes Line
	500  5550 4750 5550
Wire Notes Line
	4750 3875 11175 3875
Wire Notes Line
	9550 575  9550 3875
Wire Notes Line
	9550 2125 11200 2125
$Comp
L conn:Conn_01x03 J?
U 1 1 5E681839
P 10850 2925
F 0 "J?" H 10930 2967 50  0000 L CNN
F 1 "Serial" H 10930 2876 50  0000 L CNN
F 2 "Connectors_JST:JST_EH_B03B-EH-A_03x2.50mm_Straight" H 10850 2925 50  0001 C CNN
F 3 "~" H 10850 2925 50  0001 C CNN
	1    10850 2925
	1    0    0    -1  
$EndComp
$Comp
L conn:Conn_01x05 J?
U 1 1 5E683ACD
P 6475 5000
F 0 "J?" H 6555 5042 50  0000 L CNN
F 1 "PWR/SER" H 6555 4951 50  0000 L CNN
F 2 "suf_connector_ncw:CONN_NCW396-05S" H 6475 5000 50  0001 C CNN
F 3 "~" H 6475 5000 50  0001 C CNN
	1    6475 5000
	1    0    0    -1  
$EndComp
$Comp
L power:GND #PWR?
U 1 1 5E68532E
P 6200 5275
F 0 "#PWR?" H 6200 5025 50  0001 C CNN
F 1 "GND" H 6205 5102 50  0000 C CNN
F 2 "" H 6200 5275 50  0001 C CNN
F 3 "" H 6200 5275 50  0001 C CNN
	1    6200 5275
	1    0    0    -1  
$EndComp
Text GLabel 6150 5000 0    50   Input ~ 0
VMOT
Text GLabel 6150 4800 0    50   Input ~ 0
RXD
Text GLabel 6150 4900 0    50   Input ~ 0
TXD
$Comp
L power:VCC #PWR?
U 1 1 5E687B7F
P 5700 5025
F 0 "#PWR?" H 5700 4875 50  0001 C CNN
F 1 "VCC" H 5717 5198 50  0000 C CNN
F 2 "" H 5700 5025 50  0001 C CNN
F 3 "" H 5700 5025 50  0001 C CNN
	1    5700 5025
	1    0    0    -1  
$EndComp
Wire Wire Line
	6275 4800 6150 4800
Wire Wire Line
	6275 4900 6150 4900
Wire Wire Line
	6275 5000 6150 5000
Wire Wire Line
	5700 5025 5700 5100
Wire Wire Line
	5700 5100 6275 5100
Wire Wire Line
	6275 5200 6200 5200
Wire Wire Line
	6200 5200 6200 5275
$EndSCHEMATC
